20

8 8
5
r 0 0 e
t 7 7 s
f 2 2 n
f 2 1 w
h 3 4 n
30 5

4 9
6
h 3 2 e
h 3 3 w
h 0 0 n
f 1 1 n
t 3 6 s
r 2 2 s
5 1

9 9
5
f 0 0 n
f 1 1 s
r 8 3 n
r 5 5 s
h 8 8 s
3 1

6 7
4
f 3 3 n
f 3 4 s
h 2 1 n
h 1 1 w
10 2

4 2
3
h 1 1 n
h 2 1 w
h 3 1 e
11 3

5 5
7
f 4 4 e
r 3 3 s
r 2 2 n
t 1 1 e
h 0 0 n
r 2 1 w
h 4 2 w
20 10

10 11
6
r 0 0 e
r 9 9 e
t 9 10 s
f 4 4 n
h 4 5 n
f 4 7 n
18 9

10 10
5
h 0 0 e
r 1 1 s
f 2 1 s
f 2 2 s
t 1 2 w
4 1

12 12
5
r 9 9 s
r 11 11 n
r 7 3 s
t 8 4 n
h 6 9 n
4 1

6 9
10
f 3 4 e
r 0 0 e
h 1 1 s
h 2 2 n
h 2 4 w
h 1 2 s
f 5 6 n
f 2 1 w
f 5 5 w
r 3 3 n
15 5

11 19
10
r 0 0 n
r 1 1 w
f 2 2 e
t 3 3 n
t 3 1 n
t 3 2 n
f 4 4 w
f 0 4 w
t 1 0 s
r 4 9 s
19 13

14 14
14
r 0 1 n
r 1 2 e
t 2 3 s
f 3 4 n
h 4 5 s
h 5 6 n
h 6 7 e
t 7 8 e
h 8 9 e
r 9 10 w
r 10 11 w
t 11 12 n
t 12 13 n
t 13 13 s
3 1

10 19
9
t 0 0 e
h 1 1 s
h 1 14 e
h 1 2 n
r 1 3 n
t 8 1 n
f 7 7 s
h 8 8 n
f 5 5 n
10 2

18 18
11
r 17 17 s
r 16 6 n
h 6 6 n
h 1 2 s
t 3 4 n
t 4 4 s
r 15 15 e
f 16 16 e
f 11 11 n
h 10 10 n
r 10 1 n
20 9

12 12
9
t 9 9 e
t 8 8 e
f 7 7 e
r 9 10 e
h 11 11 e
h 8 7 n
h 4 2 e
h 5 1 e
h 7 2 e
17 8

15 10
8
t 9 9 e
f 9 1 e
f 9 2 w
f 8 8 w
h 0 0 w
h 11 1 w
h 10 1 w
h 9 8 w
4 1

14 14
5
f 0 0 e
f 1 1 s
r 2 2 w
r 3 3 n
t 11 11 w
7 3

14 7
5
r 1 1 w
r 2 2 w
t 3 3 w
h 4 4 w
h 5 5 w
20 10

5 5
3
f 0 0 w
f 1 1 w
h 2 2 n
20 2

6 7
3
h 4 1 n
h 3 1 n
h 1 1 e
10 1
