20

5 5
4
f 0 0 w
h 4 4 n
t 0 4 s
r 4 0 n
10 2

15 10
8
f 10 3 w
f 6 1 n
f 12 8 s
r 10 0 e
r 10 5 s
r 2 1 e
t 5 5 n
r 5 9 w
59 18

3 5
4
f 1 0 w
t 1 1 s
r 2 0 e
f 2 3 n
6 2

8 6
5
f 3 0 w
r 7 2 n
f 3 4 e
t 3 3 n
r 0 5 s
8 3

14 15
14
f 13 8 s
t 7 14 s
r 10 9 n
t 8 4 w
f 12 7 s
f 9 13 w
r 9 0 s
f 11 0 s
t 11 10 e
t 4 13 n
h 10 8 w
r 5 10 n
t 7 2 n
t 10 11 s
93 8

7 7
6
f 2 0 w
r 3 6 w
t 3 0 s
r 0 1 s
r 6 6 n
t 2 4 w
15 5

1 10
5
f 0 0 w
r 0 3 s
r 0 2 n
t 0 9 n
f 0 5 e
10 4

6 5
3
h 5 2 w
t 0 1 e
r 0 0 w
5 1

2 31
5
r 0 5 n
t 1 3 w
f 0 2 n
r 1 28 e
h 0 30 w
9 2

4 10
9
t 0 8 n
r 1 9 s
f 3 2 w
t 2 1 w
r 2 6 s
r 0 4 n
r 3 1 e
f 1 1 n
f 3 9 s
13 3

4 13
4
r 2 0 w
t 0 4 s
r 0 3 e
h 1 12 w
23 5

21 16
9
h 10 7 w
h 6 2 n
h 11 1 e
h 14 7 e
h 11 5 s
t 0 11 n
r 11 3 n
r 4 12 e
h 3 10 w
81 15

19 1
5
r 18 0 n
f 5 0 e
h 0 0 e
r 10 0 n
t 4 0 w
61 10

10 14
6
h 2 0 w
f 3 1 s
h 9 9 e
r 8 2 n
h 7 10 s
f 4 8 e
25 3

12 5
10
h 8 0 w
t 4 1 e
r 8 3 n
t 11 4 n
r 11 3 n
h 10 1 e
r 1 4 s
f 9 1 e
h 11 1 n
t 5 4 n
34 7

21 20
8
r 0 14 n
r 9 8 n
h 0 6 w
f 6 15 n
h 0 19 w
t 8 10 w
t 4 13 s
f 1 4 s
43 6

4 21
2
h 2 8 w
h 0 1 n
5 1

10 20
6
r 3 19 w
f 8 17 w
t 1 8 n
t 8 0 e
f 7 10 e
t 7 2 w
54 9

3 17
3
r 1 14 s
t 2 11 s
h 0 8 n
73 11

16 23
10
h 9 8 n
r 10 17 w
r 12 17 n
f 11 22 n
t 11 12 w
t 5 22 e
h 8 5 n
t 9 4 s
f 12 2 s
r 0 8 w
23 9
