20

8 8
5
f 0 0 s
r 5 5 w
h 3 3 e
h 4 3 e
f 1 1 n
5 1

7 5
8
f 6 2 n
r 6 1 s
h 2 2 n
f 4 2 w
r 3 2 s
h 4 1 e
h 4 4 n
f 0 0 e
5 2

5 8
7
h 3 3 w
f 0 2 n
h 4 5 e
f 0 1 s
h 2 4 n
f 0 6 w
t 2 6 e
13 4

6 7
9
r 2 4 w
f 1 3 e
h 5 6 n
t 2 6 e
r 0 5 e
h 0 0 s
t 0 1 n
f 3 3 e
f 3 4 n
14 2

8 8
7
h 0 4 n
f 5 2 s
f 2 4 e
h 3 5 w
h 3 2 s
r 0 3 w
t 7 0 n
25 1

7 7
7
r 5 3 n
t 5 2 s
r 1 0 s
f 5 1 s
t 4 0 n
h 6 3 s
f 0 0 n
10 5

9 9
12
f 1 4 w
r 2 4 s
t 5 8 w
f 0 2 e
h 4 8 e
h 3 7 e
f 6 1 s
f 8 1 n
r 0 4 e
r 5 2 n
t 1 3 w
r 3 3 s
10 1

7 7
9
f 2 2 e
r 2 0 w
r 1 4 e
t 3 5 w
r 3 1 w
t 5 6 n
t 1 2 e
t 4 1 s
h 6 6 n
13 3

8 8
5
r 2 3 e
f 0 5 n
t 0 2 s
h 5 5 w
r 2 5 s
14 4

6 6
7
t 2 2 e
f 3 2 s
t 1 4 e
f 5 1 s
h 4 2 w
r 5 2 e
f 1 1 n
10 1

7 7
5
t 3 5 n
f 1 1 w
r 0 1 s
r 2 4 n
f 4 4 s
9 3

6 6
6
t 2 2 n
t 2 4 s
f 4 4 e
h 1 1 s
r 3 3 s
h 1 5 w
15 3

10 10
6
f 3 6 w
r 6 7 n
t 3 3 s
f 8 5 s
h 3 4 e
t 9 9 n
20 1

9 9
7
t 6 6 n
h 1 2 e
f 0 2 n
h 1 8 e
r 4 4 s
t 4 6 e
f 1 1 s
10 2

8 8
18
h 0 0 s
r 0 3 n
t 4 2 s
r 3 5 s
f 3 6 n
h 6 3 e
t 1 6 n
h 5 5 e
f 6 1 s
r 0 5 e
r 3 1 s
r 6 6 w
f 2 0 e
r 3 4 w
r 1 4 e
f 7 7 n
f 7 5 s
h 4 3 n
5 1

5 5
7
h 3 3 n
f 1 4 e
t 2 1 s
f 4 0 n
t 4 0 w
r 1 2 e
r 3 1 s
5 1

8 8
10
f 0 0 e
t 3 1 n
r 2 2 w
h 7 7 e
t 1 3 s
r 5 5 n
r 1 5 w
h 6 4 e
t 2 6 s
f 3 3 n
15 3

8 8
10
f 1 2 n
t 2 2 e
r 7 7 s
h 5 0 n
f 3 6 e
r 5 5 s
h 5 3 w
r 6 7 n
h 2 6 s
f 3 3 e
10 1

7 7
10
f 0 0 e
f 1 6 w
t 1 4 n
f 3 6 s
h 4 2 w
h 0 4 e
t 5 5 e
f 2 1 s
f 6 6 n
r 5 3 s
15 1

8 13
10
f 3 11 e
h 5 4 n
h 4 0 e
r 6 3 s
f 5 12 w
f 2 10 e
r 6 1 n
h 7 5 s
t 6 10 n
r 7 0 e
21 1
