22

10 6
7
r 8 0 n
h 3 2 n
h 6 0 e
f 1 5 w
t 6 2 e
r 6 1 w
r 8 3 s
8 4

6 5
4
r 5 1 e
h 1 1 e
t 2 0 e
t 5 3 w
5 4

5 10
9
f 2 2 w
h 4 2 w
f 2 9 s
r 1 9 n
h 2 6 n
t 1 8 w
t 2 4 w
h 2 3 n
r 0 6 s
1 2

7 3
7
f 1 1 s
r 0 1 n
f 5 1 n
h 5 0 s
h 0 0 n
h 4 1 e
h 2 0 s
7 4

9 3
4
h 2 1 w
f 7 0 n
t 2 2 w
h 3 1 n
8 1

6 10
6
t 4 5 s
f 2 1 w
h 2 9 e
f 0 4 n
r 2 2 n
r 5 6 n
4 1

8 8
7
t 0 7 w
h 3 4 n
h 3 5 e
h 3 3 e
r 5 6 n
t 1 2 e
t 3 0 w
3 2

8 4
7
f 0 2 e
t 3 3 e
r 5 3 e
h 4 0 e
f 3 2 s
h 3 1 w
f 5 2 s
8 2

5 9
6
r 3 4 s
h 3 3 e
t 0 6 n
h 1 2 w
r 1 8 e
r 2 7 n
8 1

9 7
9
f 3 3 s
r 5 3 w
r 0 0 e
r 6 1 w
r 8 5 n
f 1 0 e
f 3 4 n
f 1 5 s
t 2 5 n
5 3

4 6
9
t 1 3 w
t 3 3 w
f 0 5 n
r 1 2 s
f 0 2 e
r 3 1 e
f 1 4 n
f 2 0 s
h 2 1 e
4 2

9 8
5
t 7 2 s
r 3 0 w
f 1 1 w
f 4 6 s
r 5 0 n
1 1

5 10
5
f 4 1 w
t 3 3 s
t 4 0 n
r 2 7 e
h 1 7 w
1 4

10 4
9
f 6 2 w
h 6 3 w
t 5 0 n
f 8 0 e
t 6 3 n
h 1 3 w
r 7 1 w
r 6 0 e
h 3 2 e
5 3

4 5
7
t 2 3 s
f 1 3 n
t 2 4 n
h 3 0 s
f 3 2 e
r 2 2 s
t 3 3 s
2 1

5 5
6
t 0 3 e
f 4 3 e
f 1 3 e
t 0 2 w
r 2 2 s
t 3 4 e
1 2

4 7
4
h 0 1 w
t 0 2 w
f 1 2 w
f 1 4 e
7 1

4 5
7
f 0 3 e
t 3 4 w
f 3 2 s
h 2 3 s
t 3 3 w
h 2 1 n
t 1 4 e
1 4

4 9
8
r 3 3 w
h 1 2 n
t 2 0 e
r 3 8 n
h 2 1 s
h 0 7 n
t 3 4 n
r 2 6 w
8 1

10 10
5
r 9 0 w
h 5 0 s
f 4 1 e
r 1 1 s
t 1 8 e
7 3

7 8
9
t 1 7 e
r 5 0 n
f 0 6 e
r 3 1 e
r 5 7 n
h 6 3 e
f 2 5 w
t 4 0 n
t 0 0 w
6 3

6 10
4
t 2 8 s
r 2 6 w
r 3 9 n
h 4 9 e
4 3
